{
  "group_supertitle": "",
  "html": "<p></p><p>Alongside HTML and CSS, JavaScript is one of the three core technologies of the World Wide Web.[9] JavaScript enables interactive web pages and thus is an essential part of web applications. The vast majority of websites use it,[10] and all major web browsers have a dedicated JavaScript engine to execute it.</p><p>As a multi-paradigm language, JavaScript supports event-driven, functional, and imperative (including object-oriented and prototype-based) programming styles. It has APIs for working with text, arrays, dates, regular expressions, and the DOM, but the language itself does not include any I/O, such as networking, storage, or graphics facilities, relying for these upon the host environment in which it is embedded.</p><p>Initially only implemented client-side in web browsers, JavaScript engines are now embedded in many other types of host software, including server-side in web servers and databases, and in non-web programs such as word processors and PDF software, and in runtime environments that make JavaScript available for writing mobile and desktop applications, including desktop widgets.</p><p>The terms Vanilla JavaScript and Vanilla JS refer to JavaScript not extended by any frameworks or additional libraries. Scripts written in Vanilla JS are plain JavaScript code.[11][12]</p><p>&#65279;Although there are similarities between JavaScript and Java, including language name, syntax, and respective standard libraries, the two languages are distinct and differ greatly in design; JavaScript was influenced by programming languages such as Self and Scheme.[13]</p><p>&#65279;Angular is one of them</p><p></p>",
  "date_changed": "2019-02-28T16:05:33",
  "url": null,
  "origin": "user",
  "v": 1.2,
  "date_retrieved": "2019-02-28T16:05:13",
  "type": "text",
  "status": "ok",
  "title": "Javascript",
  "id": "17006b63-f968-4907-a563-5c7df3f133f4",
  "text": "<p></p><p>Alongside HTML and CSS, JavaScript is one of the three core technologies of the World Wide Web.[9] JavaScript enables interactive web pages and thus is an essential part of web applications. The vast majority of websites use it,[10] and all major web browsers have a dedicated JavaScript engine to execute it.</p><p>As a multi-paradigm language, JavaScript supports event-driven, functional, and imperative (including object-oriented and prototype-based) programming styles. It has APIs for working with text, arrays, dates, regular expressions, and the DOM, but the language itself does not include any I/O, such as networking, storage, or graphics facilities, relying for these upon the host environment in which it is embedded.</p><p>Initially only implemented client-side in web browsers, JavaScript engines are now embedded in many other types of host software, including server-side in web servers and databases, and in non-web programs such as word processors and PDF software, and in runtime environments that make JavaScript available for writing mobile and desktop applications, including desktop widgets.</p><p>The terms Vanilla JavaScript and Vanilla JS refer to JavaScript not extended by any frameworks or additional libraries. Scripts written in Vanilla JS are plain JavaScript code.[11][12]</p><p>&#65279;Although there are similarities between JavaScript and Java, including language name, syntax, and respective standard libraries, the two languages are distinct and differ greatly in design; JavaScript was influenced by programming languages such as Self and Scheme.[13]</p><p>&#65279;Angular is one of them</p><p></p>",
  "self_url": "https://monitoralpha.keeeb.com/api/1.2/projects/ea94a5e5-e55b-4e9c-b254-abaa40539346/pages/6e6892b7-732d-4c29-87b4-8de5377ca0ce/mbs/17006b63-f968-4907-a563-5c7df3f133f4/",
  "group_id": "141fe70f-6bd3-434a-ba08-1162475a5e92",
  "is_edited": true,
  "retrieved_by": {
    "gravatar_hash": "1a900c981dd732f5e4a97664e93c9fc5",
    "title": "test user 1",
    "images": {},
    "url": "https://monitoralpha.keeeb.com/api/1.2/profiles/5/",
    "puid": 758117575575776,
    "name": "test.user.1"
  },
  "language": ""
}
