{
  "metadata": {
    "count": 2,
    "length": 2
  },
  "data": [
    {
      "mbs": [
        {
          "group_supertitle": "",
          "html": "<p>Angular (commonly referred to as &#34;Angular 2+&#34; or &#34;Angular v2 and above&#34;)[4][5] is a TypeScript-based open-source full-stack web application framework led by the Angular Team at Google and by a community of individuals and corporations. Angular is a complete rewrite from the same team that built AngularJS.<br><br>Angular was a ground-up rewrite of AngularJS.<br><br>Angular does not have a concept of &#34;scope&#34; or controllers, instead it uses a hierarchy of components as its primary architectural characteristic.[6]<br>Angular has a different expression syntax, focusing on &#34;[ ]&#34; for property binding, and &#34;( )&#34; for event binding[7]<br>Modularity – much core functionality has moved to modules<br>Angular recommends the use of Microsoft's TypeScript language, which introduces the following features:<br>Class-based Object Oriented Programming<br>Static Typing<br>Generics<br>TypeScript is a superset of ECMAScript 6 (ES6), and is backwards compatible with ECMAScript 5 (i.e.: JavaScript). Angular also includes ES6:<br>Lambdas<br>Iterators<br>For/Of loops<br>Python-style generators<br>Reflection<br>Dynamic loading<br>Asynchronous template compilation<br>Iterative callbacks provided by RxJS. RxJS limits state visibility and debugging, but these can be solved with reactive add-ons like ngReact or ngrx.<br>Support<br>Support Angular Universal, a technology that runs your Angular application on the server<br>Has its own suite of modern UI components that work across the web, mobile and desktop, called Angular Material<br><br>History<br>Naming<br>Originally, the rewrite of AngularJS was called &#34;Angular 2&#34; by the team, but this led to confusion among developers. To clarify, the team announced that separate terms should be used for each framework with &#34;AngularJS&#34; referring to the 1.X versions and &#34;Angular&#34; without the &#34;JS&#34; referring to versions 2 and up.[8]<br><br>Version 2<br>Angular 2.0 was announced at the ng-Europe conference 22-23. October 2014.[9][10] The drastic changes in the 2.0 version created considerable controversy among developers.[11] On April 30, 2015, the Angular developers announced that Angular 2 moved from Alpha to Developer Preview.[12] Angular 2 moved to Beta in December 2015,[13] and the first release candidate was published in May 2016.[14] The final version was released on September 14, 2016.<br><br>Version 4<br>On 13 December 2016 Angular 4 was announced, skipping 3 to avoid a confusion due to the misalignment of the router package's version which was already distributed as v3.3.0.[15] The final version was released on March 23, 2017.[16] Angular 4 is backward compatible with Angular 2.[17]<br><br>Angular version 4.3 is a minor release, meaning that it contains no breaking changes and that it is a drop-in replacement for 4.x.x.<br><br>Features in version 4.3<br><br>Introducing HttpClient, a smaller, easier to use, and more powerful library for making HTTP Requests.<br>New router life cycle events for Guards and Resolvers. Four new events: GuardsCheckStart, GuardsCheckEnd, ResolveStart, ResolveEnd join the existing set of life cycle event such as NavigationStart.<br>Conditionally disable animations.<br>Version 5<br>Angular 5 was released on November 1, 2017.[18] Key improvements in Angular 5 include support for progressive web apps, a build optimizer and improvements related to Material Design.[19]<br><br>Version 6<br>Angular 6 was released on May 4, 2018.[20]. This is a major release focused less on the underlying framework, and more on the toolchain and on making it easier to move quickly with Angular in the future, like: ng update, ng add, Angular Elements, Angular Material + CDK Components, Angular Material Starter Components, CLI Workspaces, Library Support, Tree Shakable Providers, Animations Performance Improvements, and RxJS v6.<br><br>Version 7<br>Angular 7 was released on October 18, 2018. Updates regarding Application Performance, Angular Material &amp; CDK, Virtual Scrolling, Improved Accessibility of Selects, now supports Content Projection using web standard for custom elements, and dependency updates regarding Typescript 3.1, RxJS 6.3, Node 10 (still supporting Node 8).[21]<br><br>Future Releases<br>One of the highlights is the expected release of Ivy[22], a backwards compatible, completely new render engine based on the incremental DOM architecture. Ivy has been engineered with tree shaking in mind, which means that application bundles will only include the parts of Angular source code that is actually used by the application.<br><br>Each version is expected to be backward-compatible with the prior release. Google pledged to do twice-a-year upgrades.<br><br>Support policy and schedule<br>All the major releases are supported for 18 months. This consists of 6 months of active support, during which regularly-scheduled updates and patches are released. It is then followed by 12 months of long-term support (LTS), during which only critical fixes and security patches are released.<br><br></p>",
          "date_changed": "2019-02-28T16:04:28",
          "url": null,
          "origin": "user",
          "v": 1.2,
          "date_retrieved": "2019-02-28T16:04:13",
          "type": "text",
          "status": "ok",
          "title": "Angular",
          "id": "e415a596-1210-4738-adb3-95c7cf071edb",
          "text": "<p>Angular (commonly referred to as &#34;Angular 2+&#34; or &#34;Angular v2 and above&#34;)[4][5] is a TypeScript-based open-source full-stack web application framework led by the Angular Team at Google and by a community of individuals and corporations. Angular is a complete rewrite from the same team that built AngularJS.<br><br>Angular was a ground-up rewrite of AngularJS.<br><br>Angular does not have a concept of &#34;scope&#34; or controllers, instead it uses a hierarchy of components as its primary architectural characteristic.[6]<br>Angular has a different expression syntax, focusing on &#34;[ ]&#34; for property binding, and &#34;( )&#34; for event binding[7]<br>Modularity – much core functionality has moved to modules<br>Angular recommends the use of Microsoft's TypeScript language, which introduces the following features:<br>Class-based Object Oriented Programming<br>Static Typing<br>Generics<br>TypeScript is a superset of ECMAScript 6 (ES6), and is backwards compatible with ECMAScript 5 (i.e.: JavaScript). Angular also includes ES6:<br>Lambdas<br>Iterators<br>For/Of loops<br>Python-style generators<br>Reflection<br>Dynamic loading<br>Asynchronous template compilation<br>Iterative callbacks provided by RxJS. RxJS limits state visibility and debugging, but these can be solved with reactive add-ons like ngReact or ngrx.<br>Support<br>Support Angular Universal, a technology that runs your Angular application on the server<br>Has its own suite of modern UI components that work across the web, mobile and desktop, called Angular Material<br><br>History<br>Naming<br>Originally, the rewrite of AngularJS was called &#34;Angular 2&#34; by the team, but this led to confusion among developers. To clarify, the team announced that separate terms should be used for each framework with &#34;AngularJS&#34; referring to the 1.X versions and &#34;Angular&#34; without the &#34;JS&#34; referring to versions 2 and up.[8]<br><br>Version 2<br>Angular 2.0 was announced at the ng-Europe conference 22-23. October 2014.[9][10] The drastic changes in the 2.0 version created considerable controversy among developers.[11] On April 30, 2015, the Angular developers announced that Angular 2 moved from Alpha to Developer Preview.[12] Angular 2 moved to Beta in December 2015,[13] and the first release candidate was published in May 2016.[14] The final version was released on September 14, 2016.<br><br>Version 4<br>On 13 December 2016 Angular 4 was announced, skipping 3 to avoid a confusion due to the misalignment of the router package's version which was already distributed as v3.3.0.[15] The final version was released on March 23, 2017.[16] Angular 4 is backward compatible with Angular 2.[17]<br><br>Angular version 4.3 is a minor release, meaning that it contains no breaking changes and that it is a drop-in replacement for 4.x.x.<br><br>Features in version 4.3<br><br>Introducing HttpClient, a smaller, easier to use, and more powerful library for making HTTP Requests.<br>New router life cycle events for Guards and Resolvers. Four new events: GuardsCheckStart, GuardsCheckEnd, ResolveStart, ResolveEnd join the existing set of life cycle event such as NavigationStart.<br>Conditionally disable animations.<br>Version 5<br>Angular 5 was released on November 1, 2017.[18] Key improvements in Angular 5 include support for progressive web apps, a build optimizer and improvements related to Material Design.[19]<br><br>Version 6<br>Angular 6 was released on May 4, 2018.[20]. This is a major release focused less on the underlying framework, and more on the toolchain and on making it easier to move quickly with Angular in the future, like: ng update, ng add, Angular Elements, Angular Material + CDK Components, Angular Material Starter Components, CLI Workspaces, Library Support, Tree Shakable Providers, Animations Performance Improvements, and RxJS v6.<br><br>Version 7<br>Angular 7 was released on October 18, 2018. Updates regarding Application Performance, Angular Material &amp; CDK, Virtual Scrolling, Improved Accessibility of Selects, now supports Content Projection using web standard for custom elements, and dependency updates regarding Typescript 3.1, RxJS 6.3, Node 10 (still supporting Node 8).[21]<br><br>Future Releases<br>One of the highlights is the expected release of Ivy[22], a backwards compatible, completely new render engine based on the incremental DOM architecture. Ivy has been engineered with tree shaking in mind, which means that application bundles will only include the parts of Angular source code that is actually used by the application.<br><br>Each version is expected to be backward-compatible with the prior release. Google pledged to do twice-a-year upgrades.<br><br>Support policy and schedule<br>All the major releases are supported for 18 months. This consists of 6 months of active support, during which regularly-scheduled updates and patches are released. It is then followed by 12 months of long-term support (LTS), during which only critical fixes and security patches are released.<br><br></p>",
          "self_url": "https://monitoralpha.keeeb.com/api/1.2/projects/ea94a5e5-e55b-4e9c-b254-abaa40539346/pages/6e6892b7-732d-4c29-87b4-8de5377ca0ce/mbs/e415a596-1210-4738-adb3-95c7cf071edb/",
          "group_id": "cee1c8c5-1f6a-41da-a6e5-cb33deb50ff8",
          "is_edited": true,
          "retrieved_by": {
            "gravatar_hash": "1a900c981dd732f5e4a97664e93c9fc5",
            "title": "test user 1",
            "images": {},
            "url": "https://monitoralpha.keeeb.com/api/1.2/profiles/5/",
            "puid": 758117575575776,
            "name": "test.user.1"
          },
          "language": ""
        },
        {
          "group_supertitle": "",
          "self_url": "https://monitoralpha.keeeb.com/api/1.2/projects/ea94a5e5-e55b-4e9c-b254-abaa40539346/pages/6e6892b7-732d-4c29-87b4-8de5377ca0ce/mbs/5a72bd9e-8dd2-42ba-aac3-a39e07b7af2f/",
          "date_changed": "2019-02-28T16:04:47",
          "url": null,
          "origin": "user",
          "v": 1.2,
          "date_retrieved": "2019-02-28T16:04:47",
          "type": "image",
          "status": "ok",
          "title": "Angular",
          "id": "5a72bd9e-8dd2-42ba-aac3-a39e07b7af2f",
          "retrieved_by": {
            "gravatar_hash": "1a900c981dd732f5e4a97664e93c9fc5",
            "title": "test user 1",
            "images": {},
            "url": "https://monitoralpha.keeeb.com/api/1.2/profiles/5/",
            "puid": 758117575575776,
            "name": "test.user.1"
          },
          "images": {
            "medium": {
              "is_remote": false,
              "src": "https://monitoralpha.keeeb.com/f/images/5a72bd9e-8dd2-42ba-aac3-a39e07b7af2f-2",
              "height": 410,
              "content_type": "image/jpeg",
              "width": 410,
              "is_animated": false
            },
            "original": {
              "is_remote": false,
              "src": "https://monitoralpha.keeeb.com/f/images/5a72bd9e-8dd2-42ba-aac3-a39e07b7af2f",
              "height": 512,
              "content_type": "image/png",
              "width": 512,
              "is_animated": false
            },
            "thumbnail": {
              "is_remote": false,
              "src": "https://monitoralpha.keeeb.com/f/images/5a72bd9e-8dd2-42ba-aac3-a39e07b7af2f-page",
              "height": 30,
              "content_type": "image/jpeg",
              "width": 50,
              "is_animated": false
            },
            "small": {
              "is_remote": false,
              "src": "https://monitoralpha.keeeb.com/f/images/5a72bd9e-8dd2-42ba-aac3-a39e07b7af2f-1",
              "height": 175,
              "content_type": "image/jpeg",
              "width": 175,
              "is_animated": false
            }
          },
          "group_id": "cee1c8c5-1f6a-41da-a6e5-cb33deb50ff8",
          "subtype": "standard",
          "language": ""
        }
      ],
      "date_last_updated": "2019-03-01T07:29:48",
      "tags": [],
      "date_created": "2019-02-28T16:04:13",
      "project": {
        "permissions": [
          "User:create",
          "Page:create",
          "Page:admin",
          "Project:viewMembers",
          "Project:delete",
          "Project:admin",
          "Project:edit",
          "Project:create",
          "Page:viewMembers",
          "Project:view",
          "Project:shareMagicLink"
        ],
        "title": "test topic",
        "description": null,
        "id": "ea94a5e5-e55b-4e9c-b254-abaa40539346",
        "self_url": "https://monitoralpha.keeeb.com/api/1.2/projects/ea94a5e5-e55b-4e9c-b254-abaa40539346/",
        "date_created": "2019-02-28T16:03:37",
        "color": "#4cff79",
        "name": "test_topic",
        "v": 1.2
      },
      "page": {
        "owner": {
          "gravatar_hash": "1a900c981dd732f5e4a97664e93c9fc5",
          "title": "test user 1",
          "images": {},
          "url": "https://monitoralpha.keeeb.com/api/1.2/profiles/758117575575776/",
          "puid": 758117575575776,
          "name": "test.user.1"
        },
        "microbookmarks": 2,
        "project_id": "ea94a5e5-e55b-4e9c-b254-abaa40539346",
        "date_created": "2019-02-28T16:03:45",
        "v": 1.2,
        "lsr_exempt": false,
        "name": "test_page",
        "description": null,
        "permissions": [
          "User:create",
          "Page:create",
          "Page:admin",
          "Microbookmark:group",
          "Page:setThumbnail",
          "Page:shareMagicLink",
          "Page:viewPrivate",
          "Page:edit",
          "Microbookmark:reposition",
          "Page:changeVisibility",
          "Page:viewMembers",
          "Microbookmark:create",
          "Page:viewPublic",
          "Page:delete",
          "Microbookmark:delete"
        ],
        "is_public": false,
        "title": "test page",
        "id": "6e6892b7-732d-4c29-87b4-8de5377ca0ce",
        "self_url": "https://monitoralpha.keeeb.com/api/1.2/projects/ea94a5e5-e55b-4e9c-b254-abaa40539346/pages/6e6892b7-732d-4c29-87b4-8de5377ca0ce/",
        "images": {
          "medium": {
            "is_remote": false,
            "src": "https://monitoralpha.keeeb.com/f/images/5a72bd9e-8dd2-42ba-aac3-a39e07b7af2f-2",
            "height": 410,
            "content_type": "image/jpeg",
            "width": 410,
            "is_animated": false
          },
          "original": {
            "is_remote": false,
            "src": "https://monitoralpha.keeeb.com/f/images/5a72bd9e-8dd2-42ba-aac3-a39e07b7af2f",
            "height": 512,
            "content_type": "image/png",
            "width": 512,
            "is_animated": false
          },
          "thumbnail": {
            "is_remote": false,
            "src": "https://monitoralpha.keeeb.com/f/images/5a72bd9e-8dd2-42ba-aac3-a39e07b7af2f-page",
            "height": 30,
            "content_type": "image/jpeg",
            "width": 50,
            "is_animated": false
          },
          "small": {
            "is_remote": false,
            "src": "https://monitoralpha.keeeb.com/f/images/5a72bd9e-8dd2-42ba-aac3-a39e07b7af2f-1",
            "height": 175,
            "content_type": "image/jpeg",
            "width": 175,
            "is_animated": false
          }
        },
        "date_last_updated": "2019-02-28T16:03:45"
      },
      "url": null,
      "date_retrieved": "2019-02-28T16:04:13",
      "type": "group",
      "id": "cee1c8c5-1f6a-41da-a6e5-cb33deb50ff8",
      "permissions": [
        "Microbookmark:group",
        "Microbookmark:shareMagicLink",
        "Microbookmark:vote",
        "Microbookmark:reposition",
        "Microbookmark:edit",
        "Tag:view",
        "Microbookmark:viewPublic",
        "Comment:create",
        "Comment:delete",
        "Microbookmark:create",
        "Microbookmark:viewPrivate",
        "Microbookmark:delete",
        "Tag:edit"
      ],
      "title": "Angular",
      "self_url": "https://monitoralpha.keeeb.com/api/1.2/projects/ea94a5e5-e55b-4e9c-b254-abaa40539346/pages/6e6892b7-732d-4c29-87b4-8de5377ca0ce/mbs/cee1c8c5-1f6a-41da-a6e5-cb33deb50ff8/",
      "v": 1.2
    },
    {
      "mbs": [
        {
          "group_supertitle": "",
          "html": "<p></p><p>Alongside HTML and CSS, JavaScript is one of the three core technologies of the World Wide Web.[9] JavaScript enables interactive web pages and thus is an essential part of web applications. The vast majority of websites use it,[10] and all major web browsers have a dedicated JavaScript engine to execute it.</p><p>As a multi-paradigm language, JavaScript supports event-driven, functional, and imperative (including object-oriented and prototype-based) programming styles. It has APIs for working with text, arrays, dates, regular expressions, and the DOM, but the language itself does not include any I/O, such as networking, storage, or graphics facilities, relying for these upon the host environment in which it is embedded.</p><p>Initially only implemented client-side in web browsers, JavaScript engines are now embedded in many other types of host software, including server-side in web servers and databases, and in non-web programs such as word processors and PDF software, and in runtime environments that make JavaScript available for writing mobile and desktop applications, including desktop widgets.</p><p>The terms Vanilla JavaScript and Vanilla JS refer to JavaScript not extended by any frameworks or additional libraries. Scripts written in Vanilla JS are plain JavaScript code.[11][12]</p><p>&#65279;Although there are similarities between JavaScript and Java, including language name, syntax, and respective standard libraries, the two languages are distinct and differ greatly in design; JavaScript was influenced by programming languages such as Self and Scheme.[13]</p><p>&#65279;Angular is one of them</p><p></p>",
          "date_changed": "2019-02-28T16:05:33",
          "url": null,
          "origin": "user",
          "v": 1.2,
          "date_retrieved": "2019-02-28T16:05:13",
          "type": "text",
          "status": "ok",
          "title": "Javascript",
          "id": "17006b63-f968-4907-a563-5c7df3f133f4",
          "text": "<p></p><p>Alongside HTML and CSS, JavaScript is one of the three core technologies of the World Wide Web.[9] JavaScript enables interactive web pages and thus is an essential part of web applications. The vast majority of websites use it,[10] and all major web browsers have a dedicated JavaScript engine to execute it.</p><p>As a multi-paradigm language, JavaScript supports event-driven, functional, and imperative (including object-oriented and prototype-based) programming styles. It has APIs for working with text, arrays, dates, regular expressions, and the DOM, but the language itself does not include any I/O, such as networking, storage, or graphics facilities, relying for these upon the host environment in which it is embedded.</p><p>Initially only implemented client-side in web browsers, JavaScript engines are now embedded in many other types of host software, including server-side in web servers and databases, and in non-web programs such as word processors and PDF software, and in runtime environments that make JavaScript available for writing mobile and desktop applications, including desktop widgets.</p><p>The terms Vanilla JavaScript and Vanilla JS refer to JavaScript not extended by any frameworks or additional libraries. Scripts written in Vanilla JS are plain JavaScript code.[11][12]</p><p>&#65279;Although there are similarities between JavaScript and Java, including language name, syntax, and respective standard libraries, the two languages are distinct and differ greatly in design; JavaScript was influenced by programming languages such as Self and Scheme.[13]</p><p>&#65279;Angular is one of them</p><p></p>",
          "self_url": "https://monitoralpha.keeeb.com/api/1.2/projects/ea94a5e5-e55b-4e9c-b254-abaa40539346/pages/6e6892b7-732d-4c29-87b4-8de5377ca0ce/mbs/17006b63-f968-4907-a563-5c7df3f133f4/",
          "group_id": "141fe70f-6bd3-434a-ba08-1162475a5e92",
          "is_edited": true,
          "retrieved_by": {
            "gravatar_hash": "1a900c981dd732f5e4a97664e93c9fc5",
            "title": "test user 1",
            "images": {},
            "url": "https://monitoralpha.keeeb.com/api/1.2/profiles/5/",
            "puid": 758117575575776,
            "name": "test.user.1"
          },
          "language": ""
        }
      ],
      "date_last_updated": "2019-03-01T07:29:48",
      "tags": [],
      "date_created": "2019-02-28T16:05:13",
      "project": {
        "permissions": [
          "User:create",
          "Page:create",
          "Page:admin",
          "Project:viewMembers",
          "Project:delete",
          "Project:admin",
          "Project:edit",
          "Project:create",
          "Page:viewMembers",
          "Project:view",
          "Project:shareMagicLink"
        ],
        "title": "test topic",
        "description": null,
        "id": "ea94a5e5-e55b-4e9c-b254-abaa40539346",
        "self_url": "https://monitoralpha.keeeb.com/api/1.2/projects/ea94a5e5-e55b-4e9c-b254-abaa40539346/",
        "date_created": "2019-02-28T16:03:37",
        "color": "#4cff79",
        "name": "test_topic",
        "v": 1.2
      },
      "page": {
        "owner": {
          "gravatar_hash": "1a900c981dd732f5e4a97664e93c9fc5",
          "title": "test user 1",
          "images": {},
          "url": "https://monitoralpha.keeeb.com/api/1.2/profiles/758117575575776/",
          "puid": 758117575575776,
          "name": "test.user.1"
        },
        "microbookmarks": 2,
        "project_id": "ea94a5e5-e55b-4e9c-b254-abaa40539346",
        "date_created": "2019-02-28T16:03:45",
        "v": 1.2,
        "lsr_exempt": false,
        "name": "test_page",
        "description": null,
        "permissions": [
          "User:create",
          "Page:create",
          "Page:admin",
          "Microbookmark:group",
          "Page:setThumbnail",
          "Page:shareMagicLink",
          "Page:viewPrivate",
          "Page:edit",
          "Microbookmark:reposition",
          "Page:changeVisibility",
          "Page:viewMembers",
          "Microbookmark:create",
          "Page:viewPublic",
          "Page:delete",
          "Microbookmark:delete"
        ],
        "is_public": false,
        "title": "test page",
        "id": "6e6892b7-732d-4c29-87b4-8de5377ca0ce",
        "self_url": "https://monitoralpha.keeeb.com/api/1.2/projects/ea94a5e5-e55b-4e9c-b254-abaa40539346/pages/6e6892b7-732d-4c29-87b4-8de5377ca0ce/",
        "images": {
          "medium": {
            "is_remote": false,
            "src": "https://monitoralpha.keeeb.com/f/images/5a72bd9e-8dd2-42ba-aac3-a39e07b7af2f-2",
            "height": 410,
            "content_type": "image/jpeg",
            "width": 410,
            "is_animated": false
          },
          "original": {
            "is_remote": false,
            "src": "https://monitoralpha.keeeb.com/f/images/5a72bd9e-8dd2-42ba-aac3-a39e07b7af2f",
            "height": 512,
            "content_type": "image/png",
            "width": 512,
            "is_animated": false
          },
          "thumbnail": {
            "is_remote": false,
            "src": "https://monitoralpha.keeeb.com/f/images/5a72bd9e-8dd2-42ba-aac3-a39e07b7af2f-page",
            "height": 30,
            "content_type": "image/jpeg",
            "width": 50,
            "is_animated": false
          },
          "small": {
            "is_remote": false,
            "src": "https://monitoralpha.keeeb.com/f/images/5a72bd9e-8dd2-42ba-aac3-a39e07b7af2f-1",
            "height": 175,
            "content_type": "image/jpeg",
            "width": 175,
            "is_animated": false
          }
        },
        "date_last_updated": "2019-02-28T16:03:45"
      },
      "url": null,
      "date_retrieved": "2019-02-28T16:05:13",
      "type": "group",
      "id": "141fe70f-6bd3-434a-ba08-1162475a5e92",
      "permissions": [
        "Microbookmark:group",
        "Microbookmark:shareMagicLink",
        "Microbookmark:vote",
        "Microbookmark:reposition",
        "Microbookmark:edit",
        "Tag:view",
        "Microbookmark:viewPublic",
        "Comment:create",
        "Comment:delete",
        "Microbookmark:create",
        "Microbookmark:viewPrivate",
        "Microbookmark:delete",
        "Tag:edit"
      ],
      "title": "Javascript",
      "self_url": "https://monitoralpha.keeeb.com/api/1.2/projects/ea94a5e5-e55b-4e9c-b254-abaa40539346/pages/6e6892b7-732d-4c29-87b4-8de5377ca0ce/mbs/141fe70f-6bd3-434a-ba08-1162475a5e92/",
      "v": 1.2
    }
  ],
  "paging": {
    "size": 20,
    "order": "asc",
    "prev_url": "https://monitoralpha.keeeb.com/api/1.2/search?q=angular&amp%3Bscope=public&startIndex=0&pageSize=20",
    "sort": null,
    "start": 0,
    "next_url": null
  }
}
